Get footprints around a set of genomic coordinates — footprint • BPCells
…
## Run footprinting
footprint(frags, motif_positions)
#> # A tibble: 251 × 4
#>    group position count enrichment
#>    <chr>    <int> <dbl>      <dbl>
#>  1 all       -125     0          0
#>  2 all       -124     1          2
#>  3 all       -123     0          0
#>  4 all       -122     0          0
#>  5 all       -121     2          4
#>  6 all       -120     0          0
#>  7 all       -119     1          2
#>  8 all       -118     0          0
#>  9 all       -117     0          0
#> 10 all       -116     1          2
#> # ℹ 241 more rows
…
