Calculate gene-tile distances for ArchR gene activities — gene_score_tiles_archr • BPCells
…
    Examples

## Prep data
directory  <- file.path(tempdir(), "references")
genes <- read_gencode_genes(
    directory,
    release = "42",
    annotation_set = "basic",    
)

## Get gene scores by tile
gene_score_tiles_archr(
    genes
)
#> # A tibble: 6,900,314 × 5
#>    chr   start   end gene_idx distance
#>    <fct> <dbl> <dbl>    <int>    <dbl>
#>  1 chr1      0   500        1    -6369
#>  2 chr1    500  1000        1    -5869
#>  3 chr1   1000  1500        1    -5369
#>  4 chr1   1500  2000        1    -4869
#>  5 chr1   2000  2500        1    -4369
#>  6 chr1   2500  3000        1    -3869
#>  7 chr1   3000  3500        1    -3369
#>  8 chr1   3500  4000        1    -2869
#>  9 chr1   4000  4500        1    -2369
#> 10 chr1   4500  5000        1    -1869
#> # ℹ 6,900,304 more rows
…
