Read a bed file into a data frame — read_bed • BPCells
…
#######################################################################
## read_encode_blacklist() example
#######################################################################
read_encode_blacklist("./reference")
#> # A tibble: 636 × 4
#>    chr       start       end reason            
#>    <chr>     <dbl>     <dbl> <chr>             
#>  1 chr10         0     45700 Low Mappability   
#>  2 chr10  38481300  38596500 High Signal Region
#>  3 chr10  38782600  38967900 High Signal Region
#>  4 chr10  39901300  41712900 High Signal Region
#>  5 chr10  41838900  42107300 High Signal Region
#>  6 chr10  42279400  42322500 High Signal Region
#>  7 chr10 126946300 126953400 Low Mappability   
#>  8 chr10 133625800 133797400 High Signal Region
#>  9 chr11         0    194500 Low Mappability   
#> 10 chr11    518900    520700 Low Mappability   
#> # ℹ 626 more rows
…
