Read GTF gene annotations — read_gtf • BPCells
…
#######################################################################
## read_gencode_genes() example
#######################################################################
read_gencode_genes("./references", release = "42")
#> # A tibble: 39,319 × 11
#>    chr   source feature  start    end score strand frame gene_id       gene_type
#>    <chr> <chr>  <chr>    <dbl>  <int> <chr> <chr>  <chr> <chr>         <chr>    
#>  1 chr1  HAVANA gene     11868  14409 .     +      .     ENSG00000290… lncRNA   
#>  2 chr1  HAVANA gene     29553  31109 .     +      .     ENSG00000243… lncRNA   
#>  3 chr1  HAVANA gene     34553  36081 .     -      .     ENSG00000237… lncRNA   
#>  4 chr1  HAVANA gene     57597  64116 .     +      .     ENSG00000290… lncRNA   
#>  5 chr1  HAVANA gene     65418  71585 .     +      .     ENSG00000186… protein_…
#>  6 chr1  HAVANA gene     89294 133723 .     -      .     ENSG00000238… lncRNA   
#>  7 chr1  HAVANA gene     89550  91105 .     -      .     ENSG00000239… lncRNA   
#>  8 chr1  HAVANA gene    139789 140339 .     -      .     ENSG00000239… lncRNA   
#>  9 chr1  HAVANA gene    141473 173862 .     -      .     ENSG00000241… lncRNA   
#> 10 chr1  HAVANA gene    160445 161525 .     +      .     ENSG00000241… lncRNA   
#> # ℹ 39,309 more rows
#> # ℹ 1 more variable: gene_name <chr>

#######################################################################
## read_gencode_transcripts() example
#######################################################################
## If read_gencode_genes() was already ran on the same release, 
## will reuse previously downloaded annotations
read_gencode_transcripts("./references", release = "42")
#> # A tibble: 220,296 × 13
#>    chr   source feature     start    end score strand frame gene_id    gene_type
#>    <chr> <chr>  <chr>       <dbl>  <int> <chr> <chr>  <chr> <chr>      <chr>    
#>  1 chr1  HAVANA transcript  65418  71585 .     +      .     ENSG00000… protein_…
#>  2 chr1  HAVANA exon        65418  65433 .     +      .     ENSG00000… protein_…
#>  3 chr1  HAVANA exon        65519  65573 .     +      .     ENSG00000… protein_…
#>  4 chr1  HAVANA exon        69036  71585 .     +      .     ENSG00000… protein_…
#>  5 chr1  HAVANA transcript 450739 451678 .     -      .     ENSG00000… protein_…
#>  6 chr1  HAVANA exon       450739 451678 .     -      .     ENSG00000… protein_…
#>  7 chr1  HAVANA transcript 685715 686654 .     -      .     ENSG00000… protein_…
#>  8 chr1  HAVANA exon       685715 686654 .     -      .     ENSG00000… protein_…
#>  9 chr1  HAVANA transcript 923922 944574 .     +      .     ENSG00000… protein_…
#> 10 chr1  HAVANA exon       923922 924948 .     +      .     ENSG00000… protein_…
#> # ℹ 220,286 more rows
#> # ℹ 3 more variables: gene_name <chr>, transcript_id <chr>, MANE_Select <lgl>
…
